^D:\3 КУРС\1 СЕМЕСТР\ABC\КУРСАЧ\COURSE\COURSE\COURSE.CPP|D:\3 КУРС\1 СЕМЕСТР\ABC\КУРСАЧ\COURSE\COURSE\MATRIXDECOMPOSITION.CPP|D:\3 КУРС\1 СЕМЕСТР\ABC\КУРСАЧ\COURSE\COURSE\RESULT.CPP|D:\3 КУРС\1 СЕМЕСТР\ABC\КУРСАЧ\COURSE\COURSE\SYSTEMOFLINEAREQUATIONS.CPP
D:\3 курс\1 семестр\ABC\Курсач\COURSE\COURSE\DEBUG\VC142.PDB
D:\3 курс\1 семестр\ABC\Курсач\COURSE\COURSE\DEBUG\VC142.IDB
D:\3 курс\1 семестр\ABC\Курсач\COURSE\COURSE\DEBUG\SYSTEMOFLINEAREQUATIONS.OBJ
D:\3 курс\1 семестр\ABC\Курсач\COURSE\COURSE\DEBUG\RESULT.OBJ
D:\3 курс\1 семестр\ABC\Курсач\COURSE\COURSE\DEBUG\MATRIXDECOMPOSITION.OBJ
D:\3 курс\1 семестр\ABC\Курсач\COURSE\COURSE\DEBUG\COURSE.OBJ
^D:\3 КУРС\1 СЕМЕСТР\ABC\КУРСАЧ\COURSE\COURSE\RESULT.CPP
D:\3 КУРС\1 СЕМЕСТР\ABC\КУРСАЧ\COURSE\COURSE\DEBUG\VC142.PDB
^D:\3 КУРС\1 СЕМЕСТР\ABC\КУРСАЧ\COURSE\COURSE\SYSTEMOFLINEAREQUATIONS.CPP
D:\3 КУРС\1 СЕМЕСТР\ABC\КУРСАЧ\COURSE\COURSE\DEBUG\VC142.PDB
^D:\3 КУРС\1 СЕМЕСТР\ABC\КУРСАЧ\COURSE\COURSE\COURSE.CPP|D:\3 КУРС\1 СЕМЕСТР\ABC\КУРСАЧ\COURSE\COURSE\MATRIXDECOMPOSITION.CPP
D:\3 курс\1 семестр\ABC\Курсач\COURSE\COURSE\DEBUG\VC142.PDB
D:\3 курс\1 семестр\ABC\Курсач\COURSE\COURSE\DEBUG\VC142.IDB
D:\3 курс\1 семестр\ABC\Курсач\COURSE\COURSE\DEBUG\MATRIXDECOMPOSITION.OBJ
D:\3 курс\1 семестр\ABC\Курсач\COURSE\COURSE\DEBUG\COURSE.OBJ
^D:\3 КУРС\1 СЕМЕСТР\ABC\КУРСАЧ\COURSE\COURSE\MATRIXDECOMPOSITION.CPP
D:\3 курс\1 семестр\ABC\Курсач\COURSE\COURSE\DEBUG\VC142.PDB
D:\3 курс\1 семестр\ABC\Курсач\COURSE\COURSE\DEBUG\VC142.IDB
D:\3 курс\1 семестр\ABC\Курсач\COURSE\COURSE\DEBUG\MATRIXDECOMPOSITION.OBJ
^D:\3 КУРС\1 СЕМЕСТР\ABC\КУРСАЧ\COURSE\COURSE\COURSE.CPP
D:\3 курс\1 семестр\ABC\Курсач\COURSE\COURSE\DEBUG\VC142.PDB
D:\3 курс\1 семестр\ABC\Курсач\COURSE\COURSE\DEBUG\VC142.IDB
D:\3 курс\1 семестр\ABC\Курсач\COURSE\COURSE\DEBUG\COURSE.OBJ
