^D:\3 КУРС\1 СЕМЕСТР\ABC\КУРСАЧ\COURSE\COURSE\DEBUG\COURSE.OBJ|D:\3 КУРС\1 СЕМЕСТР\ABC\КУРСАЧ\COURSE\COURSE\DEBUG\COURSE.RES|D:\3 КУРС\1 СЕМЕСТР\ABC\КУРСАЧ\COURSE\COURSE\DEBUG\MATRIXDECOMPOSITION.OBJ|D:\3 КУРС\1 СЕМЕСТР\ABC\КУРСАЧ\COURSE\COURSE\DEBUG\RESULT.OBJ|D:\3 КУРС\1 СЕМЕСТР\ABC\КУРСАЧ\COURSE\COURSE\DEBUG\SYSTEMOFLINEAREQUATIONS.OBJ
C:\PROGRAM FILES (X86)\WINDOWS KITS\10\LIB\10.0.18362.0\UM\X86\KERNEL32.LIB
C:\PROGRAM FILES (X86)\WINDOWS KITS\10\LIB\10.0.18362.0\UM\X86\USER32.LIB
C:\PROGRAM FILES (X86)\WINDOWS KITS\10\LIB\10.0.18362.0\UM\X86\GDI32.LIB
C:\PROGRAM FILES (X86)\WINDOWS KITS\10\LIB\10.0.18362.0\UM\X86\WINSPOOL.LIB
C:\PROGRAM FILES (X86)\WINDOWS KITS\10\LIB\10.0.18362.0\UM\X86\COMDLG32.LIB
C:\PROGRAM FILES (X86)\WINDOWS KITS\10\LIB\10.0.18362.0\UM\X86\ADVAPI32.LIB
C:\PROGRAM FILES (X86)\WINDOWS KITS\10\LIB\10.0.18362.0\UM\X86\SHELL32.LIB
C:\PROGRAM FILES (X86)\WINDOWS KITS\10\LIB\10.0.18362.0\UM\X86\OLE32.LIB
C:\PROGRAM FILES (X86)\WINDOWS KITS\10\LIB\10.0.18362.0\UM\X86\OLEAUT32.LIB
C:\PROGRAM FILES (X86)\WINDOWS KITS\10\LIB\10.0.18362.0\UM\X86\UUID.LIB
C:\PROGRAM FILES (X86)\WINDOWS KITS\10\LIB\10.0.18362.0\UM\X86\ODBC32.LIB
C:\PROGRAM FILES (X86)\WINDOWS KITS\10\LIB\10.0.18362.0\UM\X86\ODBCCP32.LIB
D:\3 курс\1 семестр\ABC\Курсач\COURSE\COURSE\DEBUG\COURSE.RES
D:\3 курс\1 семестр\ABC\Курсач\COURSE\COURSE\DEBUG\COURSE.OBJ
D:\3 курс\1 семестр\ABC\Курсач\COURSE\COURSE\DEBUG\MATRIXDECOMPOSITION.OBJ
D:\3 курс\1 семестр\ABC\Курсач\COURSE\COURSE\DEBUG\RESULT.OBJ
D:\3 курс\1 семестр\ABC\Курсач\COURSE\COURSE\DEBUG\SYSTEMOFLINEAREQUATIONS.OBJ
C:\WINDOWS\SYSTEM32\TZRES.DLL
C:\WINDOWS\GLOBALIZATION\SORTING\SORTDEFAULT.NLS
C:\PROGRAM FILES (X86)\MICROSOFT VISUAL STUDIO\2019\COMMUNITY\VC\TOOLS\MSVC\14.23.28105\LIB\X86\MSVCPRTD.LIB
C:\PROGRAM FILES (X86)\MICROSOFT VISUAL STUDIO\2019\COMMUNITY\VC\TOOLS\MSVC\14.23.28105\LIB\X86\VCOMPD.LIB
C:\PROGRAM FILES (X86)\MICROSOFT VISUAL STUDIO\2019\COMMUNITY\VC\TOOLS\MSVC\14.23.28105\ATLMFC\LIB\X86\ATLS.LIB
C:\PROGRAM FILES (X86)\WINDOWS KITS\10\LIB\10.0.18362.0\UM\X86\SHLWAPI.LIB
C:\PROGRAM FILES (X86)\MICROSOFT VISUAL STUDIO\2019\COMMUNITY\VC\TOOLS\MSVC\14.23.28105\LIB\X86\MSVCRTD.LIB
C:\PROGRAM FILES (X86)\MICROSOFT VISUAL STUDIO\2019\COMMUNITY\VC\TOOLS\MSVC\14.23.28105\LIB\X86\OLDNAMES.LIB
C:\PROGRAM FILES (X86)\MICROSOFT VISUAL STUDIO\2019\COMMUNITY\VC\TOOLS\MSVC\14.23.28105\LIB\X86\VCRUNTIMED.LIB
C:\PROGRAM FILES (X86)\WINDOWS KITS\10\LIB\10.0.18362.0\UCRT\X86\UCRTD.LIB
C:\PROGRAM FILES (X86)\MICROSOFT VISUAL STUDIO\2019\COMMUNITY\VC\TOOLS\MSVC\14.23.28105\BIN\HOSTX86\X86\VCTIP.EXE
