^D:\3 КУРС\1 СЕМЕСТР\ABC\КУРСАЧ\COURSE\UNITTEST1\PCH.CPP
D:\3 курс\1 семестр\ABC\Курсач\COURSE\UNITTEST1\DEBUG\UNITTEST1.PCH
D:\3 курс\1 семестр\ABC\Курсач\COURSE\UNITTEST1\DEBUG\VC142.PDB
D:\3 курс\1 семестр\ABC\Курсач\COURSE\UNITTEST1\DEBUG\VC142.IDB
D:\3 курс\1 семестр\ABC\Курсач\COURSE\UNITTEST1\DEBUG\PCH.OBJ
^D:\3 КУРС\1 СЕМЕСТР\ABC\КУРСАЧ\COURSE\UNITTEST1\UNITTEST1.CPP
D:\3 курс\1 семестр\ABC\Курсач\COURSE\UNITTEST1\DEBUG\VC142.PDB
D:\3 курс\1 семестр\ABC\Курсач\COURSE\UNITTEST1\DEBUG\VC142.IDB
D:\3 курс\1 семестр\ABC\Курсач\COURSE\UNITTEST1\DEBUG\UNITTEST1.OBJ
