^D:\3 КУРС\1 СЕМЕСТР\ABC\КУРСАЧ\COURSE\UNITTEST1\DEBUG\PCH.OBJ|D:\3 КУРС\1 СЕМЕСТР\ABC\КУРСАЧ\COURSE\UNITTEST1\DEBUG\UNITTEST1.OBJ
/OUT:"D:\3 КУРС\1 СЕМЕСТР\ABC\КУРСАЧ\COURSE\DEBUG\UNITTEST1.DLL" /INCREMENTAL /NOLOGO /LIBPATH:"C:\PROGRAM FILES (X86)\MICROSOFT VISUAL STUDIO\2019\COMMUNITY\VC\UNITTEST\LIB" KERNEL32.LIB USER32.LIB GDI32.LIB WINSPOOL.LIB COMDLG32.LIB ADVAPI32.LIB SHELL32.LIB OLE32.LIB OLEAUT32.LIB UUID.LIB ODBC32.LIB ODBCCP32.LIB /MANIFEST /MANIFESTUAC:"level='asInvoker' uiAccess='false'" /manifest:embed /DEBUG:FASTLINK /PDB:"D:\3 КУРС\1 СЕМЕСТР\ABC\КУРСАЧ\COURSE\DEBUG\UNITTEST1.PDB" /SUBSYSTEM:WINDOWS /TLBID:1 /DYNAMICBASE /NXCOMPAT /IMPLIB:"D:\3 КУРС\1 СЕМЕСТР\ABC\КУРСАЧ\COURSE\DEBUG\UNITTEST1.LIB" /MACHINE:X86 /DLL DEBUG\PCH.OBJ
DEBUG\UNITTEST1.OBJ
